x,f(x)
-20,400
-19,361
-18,324
-17,289
-16,256
-15,225
-14,196
-13,169
-12,144
-11,121
-10,100
-9,81
-8,64
-7,49
-6,36
-5,25
-4,16
-3,9
-2,4
-1,1
0,0
1,1
2,4
3,9
4,16
5,25
6,36
7,49
8,64
9,81
10,100
11,121
12,144
13,169
14,196
15,225
16,256
17,289
18,324
19,361
20,400
